module movieexample.com

go 1.20

require (
	github.com/hashicorp/consul/api v1.13.1
	google.golang.org/protobuf v1.30.0
)

require (
	github.com/armon/go-metrics v0.0.0-20180917152333-f0300d1749da // indirect
	github.com/fatih/color v1.9.0 // indirect
	github.com/hashicorp/go-cleanhttp v0.5.1 // indirect
	github.com/hashicorp/go-hclog v0.12.0 // indirect
	github.com/hashicorp/go-immutable-radix v1.0.0 // indirect
	github.com/hashicorp/go-rootcerts v1.0.2 // indirect
	github.com/hashicorp/golang-lru v0.5.0 // indirect
	github.com/hashicorp/serf v0.9.6 // indirect
	github.com/mattn/go-colorable v0.1.6 // indirect
	github.com/mattn/go-isatty v0.0.12 // indirect
	github.com/mitchellh/go-homedir v1.1.0 // indirect
	github.com/mitchellh/mapstructure v1.1.2 // indirect
	golang.org/x/sys v0.0.0-20220412211240-33da011f77ad // indirect
)
